digraph "TPReceitas.MainMenu.MainMenu"
{
  edge [fontname="Helvetica",fontsize="10",labelfontname="Helvetica",labelfontsize="10"];
  node [fontname="Helvetica",fontsize="10",shape=record];
  rankdir="LR";
  Node0 [label="TPReceitas.MainMenu.MainMenu",height=0.2,width=0.4,color="black", fillcolor="grey75", style="filled", fontcolor="black"];
  Node0 -> Node1 [color="midnightblue",fontsize="10",style="solid"];
  Node1 [label="TPReceitas.ConnToSQLite.criarConn",height=0.2,width=0.4,color="black", fillcolor="white", style="filled",URL="$class_t_p_receitas_1_1_conn_to_s_q_lite.html#ab1016ee5aca2ae9c05612a56597b9ecc"];
  Node0 -> Node2 [color="midnightblue",fontsize="10",style="solid"];
  Node2 [label="TPReceitas.ConnToSQLite.getConn",height=0.2,width=0.4,color="black", fillcolor="white", style="filled",URL="$class_t_p_receitas_1_1_conn_to_s_q_lite.html#a77c344922c88a49809e26ad29f03c4ac"];
  Node0 -> Node3 [color="midnightblue",fontsize="10",style="solid"];
  Node3 [label="TPReceitas.MainMenu.Limpar\lEditTabelaReceitas",height=0.2,width=0.4,color="black", fillcolor="white", style="filled",URL="$class_t_p_receitas_1_1_main_menu.html#aacccb6d38868b01c2d80b969204408b4"];
  Node0 -> Node4 [color="midnightblue",fontsize="10",style="solid"];
  Node4 [label="TPReceitas.MainMenu.Limpar\lTabelaIngredientes",height=0.2,width=0.4,color="black", fillcolor="white", style="filled",URL="$class_t_p_receitas_1_1_main_menu.html#acaa3252ec76978d4d77e0fcd2cfc2ba0"];
  Node0 -> Node5 [color="midnightblue",fontsize="10",style="solid"];
  Node5 [label="TPReceitas.MainMenu.Limpar\lTabelaReceitas",height=0.2,width=0.4,color="black", fillcolor="white", style="filled",URL="$class_t_p_receitas_1_1_main_menu.html#a127f469537c4646e158b46b02c6ffbfa"];
  Node0 -> Node6 [color="midnightblue",fontsize="10",style="solid"];
  Node6 [label="TPReceitas.MainMenu.Carregar\lTabelaReceitas",height=0.2,width=0.4,color="black", fillcolor="white", style="filled",URL="$class_t_p_receitas_1_1_main_menu.html#aaefd9bf2136b74e7610b604db0905e05"];
  Node0 -> Node7 [color="midnightblue",fontsize="10",style="solid"];
  Node7 [label="TPReceitas.MainMenu.Carrega\lTabelaIngredienteExistente",height=0.2,width=0.4,color="black", fillcolor="white", style="filled",URL="$class_t_p_receitas_1_1_main_menu.html#a625c805f55a602c694e90e234d27895f"];
  Node0 -> Node8 [color="midnightblue",fontsize="10",style="solid"];
  Node8 [label="TPReceitas.MainMenu.Carregar\lTabelaEditIngredientesEscolhidos",height=0.2,width=0.4,color="black", fillcolor="white", style="filled",URL="$class_t_p_receitas_1_1_main_menu.html#ab1fafaa1c212a421c4c462f2bd6ca140"];
}
