digraph "Graphical Class Hierarchy"
{
  edge [fontname="Helvetica",fontsize="10",labelfontname="Helvetica",labelfontsize="10"];
  node [fontname="Helvetica",fontsize="10",shape=record];
  rankdir="LR";
  Node2 [label="JFrame",height=0.2,width=0.4,color="grey75", fillcolor="white", style="filled"];
  Node2 -> Node0 [dir="back",color="midnightblue",fontsize="10",style="solid",fontname="Helvetica"];
  Node0 [label="TPReceitas.MainMenu",height=0.2,width=0.4,color="black", fillcolor="white", style="filled",URL="$class_t_p_receitas_1_1_main_menu.html"];
}
